TrabajoPracticoFinal_Estacionamiento/Con Antibounce/fsm_estacionamiento.vcd
$date
	Fri Jun 20 01:45:14 2025
$end
$version
	Icarus Verilog
$end
$timescale
	1ps
$end
$scope module tb_fsm_estacionamiento $end
$var wire 3 ! ocupacion [2:0] $end
$var reg 1 " a $end
$var reg 1 # b $end
$var reg 1 $ clk $end
$var reg 1 % reset $end
$var integer 32 & fail_count [31:0] $end
$var integer 32 ' pass_count [31:0] $end
$var integer 32 ( test_count [31:0] $end
$scope module dut $end
$var wire 1 " a $end
$var wire 1 # b $end
$var wire 1 $ clk $end
$var wire 1 % reset $end
$var parameter 3 ) entrada1 $end
$var parameter 3 * entrada2 $end
$var parameter 3 + entrada3 $end
$var parameter 3 , estado_invalido $end
$var parameter 3 - reposo $end
$var parameter 3 . salida1 $end
$var parameter 3 / salida2 $end
$var parameter 3 0 salida3 $end
$var reg 3 1 count [2:0] $end
$var reg 3 2 estado_actual [2:0] $end
$var reg 3 3 estado_siguiente [2:0] $end
$var reg 3 4 ocupacion [2:0] $end
$var reg 1 5 res $end
$var reg 1 6 sum $end
$upscope $end
$scope task apply_reset $end
$upscope $end
$scope task entrada_completa $end
$upscope $end
$scope task entrada_incompleta $end
$upscope $end
$scope task estado_invalido $end
$upscope $end
$scope task salida_completa $end
$upscope $end
$scope task verificar_ocupacion $end
$var reg 3 7 esperado [2:0] $end
$upscope $end
$upscope $end
$enddefinitions $end
$comment Show the parameter values. $end
$dumpall
b110 0
b101 /
b100 .
b0 -
b111 ,
b11 +
b10 *
b1 )
$end
#0
$dumpvars
bx 7
06
05
b0 4
b0 3
b0 2
b0 1
b0 (
b0 '
b0 &
1%
0$
0#
0"
b0 !
$end
#10000
1$
#20000
0$
#30000
1$
#40000
0$
0%
#50000
1$
#60000
b1 3
0$
1"
b1 '
b1 (
b0 7
#70000
b1 2
1$
#80000
0$
#90000
1$
#100000
b10 3
0$
1#
#110000
b10 2
1$
#120000
0$
#130000
1$
#140000
b11 3
0$
0"
#150000
b11 2
1$
#160000
0$
#170000
1$
#180000
16
b0 3
0$
0#
#190000
b1 !
b1 4
06
b1 1
b0 2
1$
#200000
0$
#210000
1$
#220000
b1 3
0$
1"
b10 '
b10 (
b1 7
#230000
b1 2
1$
#240000
0$
#250000
1$
#260000
b10 3
0$
1#
#270000
b10 2
1$
#280000
0$
#290000
1$
#300000
b11 3
0$
0"
#310000
b11 2
1$
#320000
0$
#330000
1$
#340000
16
b0 3
0$
0#
#350000
b10 !
b10 4
06
b10 1
b0 2
1$
#360000
0$
#370000
1$
#380000
b100 3
0$
1#
b11 '
b11 (
b10 7
#390000
b100 2
1$
#400000
0$
#410000
1$
#420000
b101 3
0$
1"
#430000
b101 2
1$
#440000
0$
#450000
1$
#460000
b110 3
0$
0#
#470000
b110 2
1$
#480000
0$
#490000
1$
#500000
15
b0 3
0$
0"
#510000
b1 !
b1 4
05
b1 1
b0 2
1$
#520000
0$
#530000
1$
#540000
b1 3
0$
1"
b100 '
b100 (
b1 7
#550000
b1 2
1$
#560000
0$
#570000
1$
#580000
b0 3
0$
0"
#590000
b0 2
1$
#600000
0$
#610000
1$
#620000
b111 3
0$
1#
1"
b101 '
b101 (
#630000
b0 3
b111 2
1$
#640000
0$
#650000
b111 3
b0 2
1$
#660000
b0 3
0$
0#
0"
#670000
1$
#680000
0$
#690000
1$
#700000
b1 3
0$
1"
b110 '
b110 (
#710000
b1 2
1$
#720000
0$
#730000
1$
#740000
b10 3
0$
1#
#750000
b10 2
1$
#760000
0$
#770000
1$
#780000
b11 3
0$
0"
#790000
b11 2
1$
#800000
0$
#810000
1$
#820000
16
b0 3
0$
0#
#830000
b10 !
b10 4
06
b10 1
b0 2
1$
#840000
0$
#850000
1$
#860000
b1 3
0$
1"
b111 '
b111 (
b10 7
#870000
b1 2
1$
#880000
0$
#890000
1$
#900000
b10 3
0$
1#
#910000
b10 2
1$
#920000
0$
#930000
1$
#940000
b11 3
0$
0"
#950000
b11 2
1$
#960000
0$
#970000
1$
#980000
16
b0 3
0$
0#
#990000
b11 !
b11 4
06
b11 1
b0 2
1$
#1000000
0$
#1010000
1$
#1020000
b1 3
0$
1"
b1000 '
b1000 (
b11 7
#1030000
b1 2
1$
#1040000
0$
#1050000
1$
#1060000
b10 3
0$
1#
#1070000
b10 2
1$
#1080000
0$
#1090000
1$
#1100000
b11 3
0$
0"
#1110000
b11 2
1$
#1120000
0$
#1130000
1$
#1140000
16
b0 3
0$
0#
#1150000
b100 !
b100 4
06
b100 1
b0 2
1$
#1160000
0$
#1170000
1$
#1180000
b1 3
0$
1"
b1001 '
b1001 (
b100 7
#1190000
b1 2
1$
#1200000
0$
#1210000
1$
#1220000
b10 3
0$
1#
#1230000
b10 2
1$
#1240000
0$
#1250000
1$
#1260000
b11 3
0$
0"
#1270000
b11 2
1$
#1280000
0$
#1290000
1$
#1300000
16
b0 3
0$
0#
#1310000
b101 !
b101 4
06
b101 1
b0 2
1$
#1320000
0$
#1330000
1$
#1340000
b1 3
0$
1"
b1010 '
b1010 (
b101 7
#1350000
b1 2
1$
#1360000
0$
#1370000
1$
#1380000
b10 3
0$
1#
#1390000
b10 2
1$
#1400000
0$
#1410000
1$
#1420000
b11 3
0$
0"
#1430000
b11 2
1$
#1440000
0$
#1450000
1$
#1460000
16
b0 3
0$
0#
#1470000
b110 !
b110 4
06
b110 1
b0 2
1$
#1480000
0$
#1490000
1$
#1500000
b1 3
0$
1"
b1011 '
b1011 (
b110 7
#1510000
b1 2
1$
#1520000
0$
#1530000
1$
#1540000
b10 3
0$
1#
#1550000
b10 2
1$
#1560000
0$
#1570000
1$
#1580000
b11 3
0$
0"
#1590000
b11 2
1$
#1600000
0$
#1610000
1$
#1620000
16
b0 3
0$
0#
#1630000
b111 !
b111 4
06
b111 1
b0 2
1$
#1640000
0$
#1650000
1$
#1660000
b100 3
0$
1#
b1100 '
b1100 (
b111 7
#1670000
b100 2
1$
#1680000
0$
#1690000
1$
#1700000
b101 3
0$
1"
#1710000
b101 2
1$
#1720000
0$
#1730000
1$
#1740000
b110 3
0$
0#
#1750000
b110 2
1$
#1760000
0$
#1770000
1$
#1780000
15
b0 3
0$
0"
#1790000
b110 !
b110 4
05
b110 1
b0 2
1$
#1800000
0$
#1810000
1$
#1820000
b100 3
0$
1#
b1101 '
b1101 (
b110 7
#1830000
b100 2
1$
#1840000
0$
#1850000
1$
#1860000
b101 3
0$
1"
#1870000
b101 2
1$
#1880000
0$
#1890000
1$
#1900000
b110 3
0$
0#
#1910000
b110 2
1$
#1920000
0$
#1930000
1$
#1940000
15
b0 3
0$
0"
#1950000
b101 !
b101 4
05
b101 1
b0 2
1$
#1960000
0$
#1970000
1$
#1980000
b100 3
0$
1#
b1110 '
b1110 (
b101 7
#1990000
b100 2
1$
#2000000
0$
#2010000
1$
#2020000
b101 3
0$
1"
#2030000
b101 2
1$
#2040000
0$
#2050000
1$
#2060000
b110 3
0$
0#
#2070000
b110 2
1$
#2080000
0$
#2090000
1$
#2100000
15
b0 3
0$
0"
#2110000
b100 !
b100 4
05
b100 1
b0 2
1$
#2120000
0$
#2130000
1$
#2140000
b100 3
0$
1#
b1111 '
b1111 (
b100 7
#2150000
b100 2
1$
#2160000
0$
#2170000
1$
#2180000
b101 3
0$
1"
#2190000
b101 2
1$
#2200000
0$
#2210000
1$
#2220000
b110 3
0$
0#
#2230000
b110 2
1$
#2240000
0$
#2250000
1$
#2260000
15
b0 3
0$
0"
#2270000
b11 !
b11 4
05
b11 1
b0 2
1$
#2280000
0$
#2290000
1$
#2300000
b100 3
0$
1#
b10000 '
b10000 (
b11 7
#2310000
b100 2
1$
#2320000
0$
#2330000
1$
#2340000
b101 3
0$
1"
#2350000
b101 2
1$
#2360000
0$
#2370000
1$
#2380000
b110 3
0$
0#
#2390000
b110 2
1$
#2400000
0$
#2410000
1$
#2420000
15
b0 3
0$
0"
#2430000
b10 !
b10 4
05
b10 1
b0 2
1$
#2440000
0$
#2450000
1$
#2460000
b100 3
0$
1#
b10001 '
b10001 (
b10 7
#2470000
b100 2
1$
#2480000
0$
#2490000
1$
#2500000
b101 3
0$
1"
#2510000
b101 2
1$
#2520000
0$
#2530000
1$
#2540000
b110 3
0$
0#
#2550000
b110 2
1$
#2560000
0$
#2570000
1$
#2580000
15
b0 3
0$
0"
#2590000
b1 !
b1 4
05
b1 1
b0 2
1$
#2600000
0$
#2610000
1$
#2620000
b100 3
0$
1#
b10010 '
b10010 (
b1 7
#2630000
b100 2
1$
#2640000
0$
#2650000
1$
#2660000
b101 3
0$
1"
#2670000
b101 2
1$
#2680000
0$
#2690000
1$
#2700000
b110 3
0$
0#
#2710000
b110 2
1$
#2720000
0$
#2730000
1$
#2740000
15
b0 3
0$
0"
#2750000
b0 !
b0 4
05
b0 1
b0 2
1$
#2760000
0$
#2770000
1$
#2780000
b100 3
0$
1#
b10011 '
b10011 (
b0 7
#2790000
b100 2
1$
#2800000
0$
#2810000
1$
#2820000
b101 3
0$
1"
#2830000
b101 2
1$
#2840000
0$
#2850000
1$
#2860000
b110 3
0$
0#
#2870000
b110 2
1$
#2880000
0$
#2890000
1$
#2900000
15
b0 3
0$
0"
#2910000
b111 !
b111 4
05
b111 1
b0 2
1$
#2920000
0$
#2930000
1$
#2940000
b0 !
b0 4
b0 1
0$
1%
#2950000
1$
#2960000
0$
#2970000
1$
#2980000
0$
0%
#2990000
1$
#3000000
0$
b10100 '
b10100 (
